111111111
222222222111111111
222222222111111111
222222222111111111
222222222111111111
222222222111111111
222222222111111111
222222222111111111
222222222111111111
222222222111111111
222222222111111111
222222222111111111
222222222111111111
222222222111111111
222222222111111111
222222222111111111
222222222111111111
222222222111111111
222222222111111111
222222222111111111
222222222111111111
222222222111111111
222222222111111111
222222222111111111
222222222111111111
222222222111111111
222222222111111111
222222222111111111
222222222111111111
222222222111111111
222222222111111111
222222222111111111
222222222111111111
222222222111111111
222222222111111111
222222222111111111
222222222111111111
222222222111111111
222222222111111111
222222222111111111
222222222111111111
222222222111111111
222222222111111111
222222222111111111
222222222111111111
222222222111111111
222222222111111111
222222222111111111
222222222111111111
222222222111111111
222222222111111111
222222222111111111
222222222111111111
222222222111111111
222222222111111111
222222222111111111
222222222111111111
222222222111111111
222222222111111111
222222222111111111
222222222111111111
222222222111111111
222222222111111111
222222222111111111
222222222111111111
222222222111111111
222222222111111111
222222222111111111
222222222111111111
222222222111111111
222222222111111111
222222222111111111
222222222111111111
222222222111111111
222222222111111111
222222222111111111
222222222111111111
222222222111111111
222222222111111111
222222222111111111
222222222111111111
222222222111111111
222222222111111111
222222222111111111
222222222111111111
222222222111111111
222222222111111111
222222222111111111
222222222111111111
222222222111111111
222222222111111111
222222222111111111
222222222111111111
222222222111111111
222222222111111111
222222222111111111
222222222111111111
222222222111111111
222222222111111111
222222222111111111
222222222111111111
222222222111111111
222222222111111111
222222222111111111
222222222111111111
222222222111111111
222222222111111111
222222222111111111
222222222111111111
222222222111111111
222222222111111111
222222222111111111
222222222111111111
222222222111111111
222222222111111111
222222222111111111
222222222111111111
222222222111111111
222222222111111111
222222222111111111
222222222111111111
222222222111111111
222222222111111111
222222222111111111
222222222111111111
222222222111111111
222222222111111111
222222222111111111
222222222111111111
222222222111111111
222222222111111111
222222222111111111
222222222111111111
222222222111111111
222222222111111111
222222222111111111
222222222111111111
222222222111111111
222222222111111111
222222222111111111
222222222111111111
222222222111111111
222222222111111111
222222222111111111
222222222111111111
222222222111111111
222222222111111111
222222222111111111
222222222111111111
222222222111111111
222222222111111111
222222222111111111
222222222111111111
222222222111111111
222222222111111111
222222222111111111
222222222111111111
222222222111111111
222222222111111111
222222222111111111
222222222111111111
222222222111111111
222222222111111111
222222222111111111
222222222111111111
222222222111111111
222222222111111111
222222222111111111
222222222111111111
222222222111111111
222222222111111111
222222222111111111
222222222111111111
222222222111111111
222222222111111111
222222222111111111
222222222111111111
222222222111111111
222222222111111111
222222222111111111
222222222111111111
222222222111111111
222222222111111111
222222222111111111
222222222111111111
222222222111111111
222222222111111111
222222222111111111
222222222111111111
222222222111111111
222222222111111111
222222222111111111
222222222111111111
222222222111111111
222222222111111111
222222222111111111
222222222111111111
222222222111111111
222222222111111111
222222222111111111
222222222111111111
222222222111111111
222222222111111111
222222222111111111
222222222111111111
222222222111111111
222222222111111111
222222222111111111
222222222111111111
222222222111111111
222222222111111111
222222222111111111
222222222111111111
222222222111111111
222222222111111111
222222222111111111
222222222111111111
222222222111111111
222222222111111111
222222222111111111
222222222111111111
222222222111111111
222222222111111111
222222222111111111
222222222111111111
222222222111111111
222222222111111111
222222222111111111
222222222111111111
222222222111111111
222222222111111111
222222222111111111
222222222111111111
222222222111111111
222222222111111111
222222222111111111
222222222111111111
222222222111111111
222222222111111111
222222222111111111
222222222111111111
222222222111111111
222222222111111111
222222222111111111
222222222111111111
222222222111111111
222222222111111111
222222222111111111
222222222111111111
222222222111111111
222222222111111111
222222222111111111
222222222111111111
222222222111111111
222222222111111111
222222222111111111
222222222111111111
222222222111111111
222222222111111111
222222222111111111
222222222111111111
222222222111111111
222222222111111111
222222222111111111
222222222111111111
222222222111111111
222222222111111111
222222222111111111
222222222111111111
222222222111111111
222222222111111111
222222222111111111
222222222111111111
222222222111111111
222222222111111111
222222222111111111
222222222111111111
222222222111111111
222222222111111111
222222222111111111
222222222111111111
222222222111111111
222222222111111111
222222222111111111
222222222111111111
222222222111111111
222222222111111111
222222222111111111
222222222111111111
222222222111111111
222222222111111111
222222222111111111
222222222111111111
222222222111111111
222222222111111111
222222222111111111
222222222111111111
222222222111111111
222222222111111111
222222222111111111
222222222111111111
222222222111111111
222222222111111111
222222222111111111
222222222111111111
222222222111111111
222222222111111111
222222222111111111
222222222111111111
222222222111111111
222222222111111111
222222222111111111
222222222111111111
222222222111111111
222222222111111111
222222222111111111
222222222111111111
222222222111111111
222222222111111111
222222222111111111
222222222111111111
222222222111111111
222222222111111111
222222222111111111
222222222111111111
222222222111111111
222222222111111111
222222222111111111
222222222111111111
222222222111111111
222222222111111111
222222222111111111
222222222111111111
222222222111111111
222222222111111111
222222222111111111
222222222111111111
222222222111111111
222222222111111111
222222222111111111
222222222111111111
222222222111111111
222222222111111111
222222222111111111
222222222111111111
222222222111111111
222222222111111111
222222222111111111
222222222111111111
222222222111111111
222222222111111111
222222222111111111
222222222111111111
222222222111111111
222222222111111111
222222222111111111
222222222111111111
222222222111111111
222222222111111111
222222222111111111
222222222111111111
222222222111111111
222222222111111111
222222222111111111
222222222111111111
222222222111111111
222222222111111111
222222222111111111
222222222111111111
222222222111111111
222222222111111111
222222222111111111
222222222111111111
222222222111111111
222222222111111111
222222222111111111
222222222111111111
222222222111111111
222222222111111111
222222222111111111
222222222111111111
222222222111111111
222222222111111111
222222222111111111
222222222111111111
222222222111111111
222222222111111111
222222222111111111
222222222111111111
222222222111111111
222222222111111111
222222222111111111
222222222111111111
222222222111111111
222222222111111111
222222222111111111
222222222111111111
222222222111111111
222222222111111111
222222222111111111
222222222111111111
222222222111111111
222222222111111111
222222222111111111
222222222111111111
222222222111111111
222222222111111111
222222222111111111
222222222111111111
222222222111111111
222222222111111111
222222222111111111
222222222111111111
222222222111111111
222222222111111111
222222222111111111
222222222111111111
222222222111111111
222222222111111111
222222222111111111
222222222111111111
222222222111111111
222222222111111111
222222222111111111
222222222111111111
222222222111111111
222222222111111111
222222222111111111
222222222111111111
222222222111111111
222222222111111111
222222222111111111
222222222111111111
222222222111111111
222222222111111111
222222222111111111
222222222111111111
222222222111111111
222222222111111111
222222222111111111
222222222111111111
222222222111111111
222222222111111111
222222222111111111
222222222111111111
222222222111111111
222222222111111111
222222222111111111
222222222111111111
222222222111111111
222222222111111111
222222222111111111
222222222111111111
222222222111111111
222222222111111111
222222222111111111
222222222111111111
222222222111111111
222222222111111111
222222222111111111
222222222111111111
222222222111111111
222222222111111111
222222222111111111
222222222111111111
222222222111111111
222222222111111111
222222222111111111
222222222111111111
222222222111111111
222222222111111111
222222222111111111
222222222111111111
222222222111111111
222222222111111111
222222222111111111
222222222111111111
222222222111111111
222222222111111111
222222222111111111
222222222111111111
222222222111111111
222222222111111111
222222222111111111
222222222111111111
222222222111111111
222222222111111111
222222222111111111
222222222111111111
222222222111111111
222222222111111111
222222222111111111
222222222111111111
222222222111111111
222222222111111111
222222222111111111
222222222111111111
222222222111111111
222222222111111111
222222222111111111
222222222111111111
222222222111111111
222222222111111111
222222222111111111
222222222111111111
222222222111111111
222222222111111111
222222222111111111
222222222111111111
222222222111111111
222222222111111111
222222222111111111
222222222111111111
222222222111111111
222222222111111111
222222222111111111
222222222111111111
222222222111111111
222222222111111111
222222222111111111
222222222111111111
222222222111111111
222222222111111111
222222222111111111
222222222111111111
222222222111111111
222222222111111111
222222222111111111
222222222111111111
222222222111111111
222222222111111111
222222222111111111
222222222111111111
222222222111111111
222222222111111111
222222222111111111
222222222111111111
222222222111111111
222222222111111111
222222222111111111
222222222111111111
222222222111111111
222222222111111111
222222222111111111
222222222111111111
222222222111111111
222222222111111111
222222222111111111
222222222111111111
222222222111111111
222222222111111111
222222222111111111
222222222111111111
222222222111111111
222222222111111111
222222222111111111
222222222111111111
222222222111111111
222222222111111111
222222222111111111
222222222111111111
222222222111111111
222222222111111111
222222222111111111
222222222111111111
222222222111111111
222222222111111111
222222222111111111
222222222111111111
222222222111111111
222222222111111111
222222222111111111
222222222111111111
222222222111111111
222222222111111111
222222222111111111
222222222111111111
222222222111111111
222222222111111111
222222222111111111
222222222111111111
222222222111111111
222222222111111111
222222222111111111
222222222111111111
222222222111111111
222222222111111111
222222222111111111
222222222111111111
222222222111111111
222222222111111111
222222222111111111
222222222111111111
222222222111111111
222222222111111111
222222222111111111
222222222111111111
222222222111111111
222222222111111111
222222222111111111
222222222111111111
222222222111111111
222222222111111111
222222222111111111
222222222111111111
222222222111111111
222222222111111111
222222222111111111
222222222111111111
222222222111111111
222222222111111111
222222222111111111
222222222111111111
222222222111111111
222222222111111111
222222222111111111
222222222111111111
222222222111111111
222222222111111111
222222222111111111
222222222111111111
222222222111111111
222222222111111111
222222222111111111
222222222111111111
222222222111111111
222222222111111111
222222222111111111
222222222111111111
222222222111111111
222222222111111111
222222222111111111
222222222111111111
222222222111111111
222222222111111111
222222222111111111
222222222111111111
222222222111111111
222222222111111111
222222222111111111
222222222111111111
222222222111111111
222222222111111111
222222222111111111
222222222111111111
222222222111111111
222222222111111111
222222222111111111
222222222111111111
222222222111111111
222222222111111111
222222222111111111
222222222111111111
222222222111111111
222222222111111111
222222222111111111
222222222111111111
222222222111111111
222222222111111111
222222222111111111
222222222111111111
222222222111111111
222222222111111111
222222222111111111
222222222111111111
222222222111111111
222222222111111111
222222222111111111
222222222111111111
222222222111111111
222222222111111111
222222222111111111
222222222111111111
222222222111111111
222222222111111111
222222222111111111
222222222111111111
222222222111111111
222222222111111111
222222222111111111
222222222111111111
222222222111111111
222222222111111111
222222222111111111
222222222111111111
222222222111111111
222222222111111111
222222222111111111
222222222111111111
222222222111111111
222222222111111111
222222222111111111
222222222111111111
222222222111111111
222222222111111111
222222222111111111
222222222111111111
222222222111111111
222222222111111111
222222222111111111
222222222111111111
222222222111111111
222222222111111111
222222222111111111
222222222111111111
222222222111111111
222222222111111111
222222222111111111
222222222111111111
222222222111111111
222222222111111111
222222222111111111
222222222111111111
222222222111111111
222222222111111111
222222222111111111
222222222111111111
222222222111111111
222222222111111111
222222222111111111
222222222111111111
222222222111111111
222222222111111111
222222222111111111
222222222111111111
222222222111111111
222222222111111111
222222222111111111
222222222111111111
222222222111111111
222222222111111111
222222222111111111
222222222111111111
222222222111111111
222222222111111111
222222222111111111
222222222111111111
222222222111111111
222222222111111111
222222222111111111
222222222111111111
222222222111111111
222222222111111111
222222222111111111
222222222111111111
222222222111111111
222222222111111111
222222222111111111
222222222111111111
222222222111111111
222222222111111111
222222222111111111
222222222111111111
222222222111111111
222222222111111111
222222222111111111
222222222111111111
222222222111111111
222222222111111111
222222222111111111
222222222111111111
222222222111111111
222222222111111111
222222222111111111
222222222111111111
222222222111111111
222222222111111111
222222222111111111
222222222111111111
222222222111111111
222222222111111111
222222222111111111
222222222111111111
222222222111111111
222222222111111111
222222222111111111
222222222111111111
222222222111111111
222222222111111111
222222222111111111
222222222111111111
222222222111111111
222222222111111111
222222222111111111
222222222111111111
222222222111111111
222222222111111111
222222222111111111
222222222111111111
222222222111111111
222222222111111111
222222222111111111
222222222111111111
222222222111111111
222222222111111111
222222222111111111
222222222111111111
222222222111111111
222222222111111111
222222222111111111
222222222111111111
222222222111111111
222222222111111111
222222222111111111
222222222111111111
222222222111111111
222222222111111111
222222222111111111
222222222111111111
222222222111111111
222222222111111111
222222222111111111
222222222111111111
222222222111111111
222222222111111111
222222222111111111
222222222111111111
222222222111111111
222222222111111111
222222222111111111
222222222111111111
222222222111111111
222222222111111111
222222222111111111
222222222111111111
222222222111111111
222222222111111111
222222222111111111
222222222111111111
222222222111111111
222222222111111111
222222222111111111
222222222111111111
222222222111111111
222222222111111111
222222222111111111
222222222111111111
222222222111111111
222222222111111111
222222222111111111
222222222111111111
222222222111111111
222222222111111111
222222222111111111
222222222111111111
222222222111111111
222222222111111111
222222222111111111
222222222111111111
222222222111111111
222222222111111111
222222222111111111
222222222111111111
222222222111111111
222222222111111111
222222222111111111
222222222111111111
222222222111111111
222222222111111111
222222222111111111
222222222111111111
222222222111111111
222222222111111111
222222222111111111
222222222111111111
222222222111111111
222222222111111111
222222222111111111
222222222111111111
222222222111111111
222222222111111111
222222222111111111
222222222111111111
222222222111111111
222222222111111111
222222222111111111
222222222111111111
222222222111111111
222222222111111111
222222222111111111
222222222111111111
222222222111111111
222222222111111111
222222222111111111
222222222111111111
222222222111111111
222222222111111111
222222222111111111
222222222111111111
222222222111111111
222222222111111111
222222222111111111
222222222111111111
222222222111111111
222222222111111111
222222222111111111
222222222111111111
222222222111111111
222222222111111111
222222222111111111
222222222111111111
222222222111111111
222222222111111111
222222222111111111
222222222111111111
222222222111111111
222222222111111111
222222222111111111
222222222111111111
222222222111111111
222222222111111111
222222222111111111
222222222111111111
222222222111111111
222222222111111111
222222222111111111
222222222111111111
222222222111111111
222222222111111111
222222222111111111
222222222111111111
222222222111111111
222222222111111111
222222222111111111
222222222111111111
222222222111111111
222222222111111111
222222222111111111
222222222111111111
222222222111111111
222222222111111111
222222222111111111
222222222111111111
222222222111111111
222222222111111111
222222222111111111
222222222111111111
222222222111111111
222222222111111111
222222222111111111
222222222111111111
222222222111111111
222222222111111111
222222222111111111
222222222111111111
222222222111111111
222222222111111111
222222222111111111
222222222111111111
222222222111111111
222222222111111111
222222222111111111
222222222111111111
222222222111111111
222222222111111111
222222222111111111
222222222111111111
222222222111111111
222222222111111111
222222222111111111
222222222111111111
222222222111111111
222222222111111111
222222222111111111
222222222111111111
222222222111111111
222222222111111111
222222222111111111
222222222111111111
222222222111111111
222222222111111111
222222222111111111
222222222111111111
222222222111111111
222222222111111111
222222222111111111
222222222111111111
222222222111111111
222222222111111111
222222222111111111
222222222111111111
222222222111111111
222222222111111111
222222222111111111
222222222111111111
222222222111111111
222222222111111111
222222222111111111
222222222111111111
222222222111111111
222222222111111111
222222222111111111
222222222111111111
222222222111111111
222222222111111111
222222222111111111
222222222111111111
222222222111111111
222222222111111111
222222222111111111
222222222111111111
222222222111111111
222222222111111111
222222222111111111
222222222111111111
222222222111111111
222222222111111111
222222222111111111
222222222111111111
222222222111111111
222222222111111111
222222222111111111
222222222111111111
222222222111111111
222222222111111111
222222222111111111
222222222111111111
222222222111111111
222222222111111111
222222222111111111
222222222111111111
222222222111111111
222222222111111111
222222222111111111
222222222111111111
222222222111111111
222222222111111111
222222222111111111
222222222111111111
222222222111111111
222222222111111111
222222222111111111
222222222111111111
222222222111111111
222222222111111111
222222222111111111
222222222111111111
222222222111111111
222222222111111111
222222222111111111
222222222111111111
222222222111111111
222222222111111111
222222222111111111
222222222111111111
222222222111111111
222222222111111111
222222222111111111
222222222111111111
222222222111111111
222222222111111111
222222222111111111
222222222111111111
222222222111111111
222222222111111111
222222222111111111
222222222111111111
222222222111111111
222222222111111111
222222222111111111
222222222111111111
222222222111111111
222222222111111111
222222222111111111
222222222111111111
222222222111111111
222222222111111111
222222222111111111
222222222111111111
222222222111111111
222222222111111111
222222222111111111
222222222111111111
222222222111111111
222222222111111111
222222222111111111
222222222111111111
222222222111111111
222222222111111111
222222222111111111
222222222111111111
222222222111111111
222222222111111111
222222222111111111
222222222111111111
222222222111111111
222222222111111111
222222222111111111
222222222111111111
222222222111111111
222222222111111111
222222222111111111
222222222111111111
222222222111111111
222222222111111111
222222222111111111
222222222111111111
222222222111111111
222222222111111111
222222222111111111
222222222111111111
222222222111111111
222222222111111111
222222222111111111
222222222111111111
222222222111111111
222222222111111111
222222222111111111
222222222111111111
222222222111111111
222222222111111111
222222222
